{
  "kind": "singleType",
  "collectionName": "special_sections",
  "info": {
    "singularName": "special-section",
    "pluralName": "special-sections",
    "displayName": "special-section",
    "description": ""
  },
  "options": {
    "draftAndPublish": true
  },
  "pluginOptions": {},
  "attributes": {
    "is_on": {
      "type": "boolean",
      "default": false
    },
    "title": {
      "type": "string"
    },
    "text": {
      "type": "richtext"
    },
    "image": {
      "type": "media",
      "multiple": false,
      "required": false,
      "allowedTypes": [
        "images"
      ]
    },
    "file": {
      "type": "media",
      "multiple": false,
      "required": false,
      "allowedTypes": [
        "files",
        "images",
        "videos",
        "audios",
        "files"
      ]
    }
  }
}
